Sentiment Analysis of A Million News Headlines
…
Now lets import the data

# import data
news <- as.tibble(read_csv(here("abcnews-date-text.csv")))
news

## # A tibble: 1,103,665 x 2
##    publish_date headline_text                                     
##           <dbl> <chr>                                             
##  1     20030219 aba decides against community broadcasting licence
##  2     20030219 act fire witnesses must be aware of defamation    
##  3     20030219 a g calls for infrastructure protection summit    
##  4     20030219 air nz staff in aust strike for pay rise          
##  5     20030219 air nz strike to affect australian travellers     
##  6     20030219 ambitious olsson wins triple jump                 
##  7     20030219 antic delighted with record breaking barca        
##  8     20030219 aussie qualifier stosur wastes four memphis match 
##  9     20030219 aust addresses un security council over iraq      
## 10     20030219 australia is locked into war timetable opp        
## # ... with 1,103,655 more rows

Term Frequency

One of the common task in text mining is to look at word frequencies. Lets analyze word frequencies in all of the headlines

news <- news %>%
      # create year column    
      mutate(year = substr(publish_date, 
                start = 1, stop = 4),
                linenumber = row_number())

news

## # A tibble: 1,103,665 x 4
##    publish_date headline_text                             year  linenumber
##           <dbl> <chr>                                     <chr>      <int>
##  1     20030219 aba decides against community broadcasti 2003           1
##  2     20030219 act fire witnesses must be aware of defa 2003           2
##  3     20030219 a g calls for infrastructure protection  2003           3
##  4     20030219 air nz staff in aust strike for pay rise  2003           4
##  5     20030219 air nz strike to affect australian trave 2003           5
##  6     20030219 ambitious olsson wins triple jump         2003           6
##  7     20030219 antic delighted with record breaking bar 2003           7
##  8     20030219 aussie qualifier stosur wastes four memp 2003           8
##  9     20030219 aust addresses un security council over  2003           9
## 10     20030219 australia is locked into war timetable o 2003          10
## # ... with 1,103,655 more rows

we can use unnest_tokens to separate each line into words. The default tokenizing is for words, but other options include characters, sentences, lines, paragraphs, or separation around regex pattern.

tidy_news <- news %>% 
        unnest_tokens(word, headline_text)

tidy_news

## # A tibble: 7,070,525 x 4
##    publish_date year  linenumber word        
##           <dbl> <chr>      <int> <chr>       
##  1     20030219 2003           1 aba         
##  2     20030219 2003           1 decides     
##  3     20030219 2003           1 against     
##  4     20030219 2003           1 community   
##  5     20030219 2003           1 broadcasting
##  6     20030219 2003           1 licence     
##  7     20030219 2003           2 act         
##  8     20030219 2003           2 fire        
##  9     20030219 2003           2 witnesses   
## 10     20030219 2003           2 must        
## # ... with 7,070,515 more rows
…
We can see here most of the headlines contain the words, police, court, council.

Network of Words

Lets count the words that occur together in the headlines from 2017. Using pairwise_count function from widyr package, we can count highest co-occurances pair of words.

headlines_2017 <- tidy_news %>% 
    filter(year == "2017") %>%
    pairwise_count(word, linenumber, sort = TRUE)  
  
headlines_2017

## # A tibble: 1,004,826 x 3
##    item1    item2        n
##    <chr>    <chr>    <dbl>
##  1 trump    donald     612
##  2 donald   trump      612
##  3 korea    north      301
##  4 north    korea      301
##  5 marriage sex        285
##  6 sex      marriage   285
##  7 turnbull malcolm    197
##  8 malcolm  turnbull   197
##  9 election wa         149
## 10 wa       election   149
## # ... with 1,004,816 more rows
…
Next, well look into sentiment analysis of these words so we can understand what type of sentiment have been used in most of these headlines.

Sentiment Analysis

Now lets investigate sentiment analysis. When we reads a text, we use our understanding of the emotional intent of words to infer wheter a section of words is positive or negative and also categorized it into emotion like anger or joy. Lets use bing lexicon from sentiments dataset to categorized our words into positive or negative sentiment.

# create dataframe of words from bing lexicon
library(tidyr)
bing <- sentiments %>%
        filter(lexicon == "bing") %>%
        select(-score)

bing

## # A tibble: 6,788 x 3
##    word        sentiment lexicon
##    <chr>       <chr>     <chr>  
##  1 2-faced     negative  bing   
##  2 2-faces     negative  bing   
##  3 a+          positive  bing   
##  4 abnormal    negative  bing   
##  5 abolish     negative  bing   
##  6 abominable  negative  bing   
##  7 abominably  negative  bing   
##  8 abominate   negative  bing   
##  9 abomination negative  bing   
## 10 abort       negative  bing   
## # ... with 6,778 more rows
…
Proportions of Positive and Negative Words

Now lets see the proportions of negative and positive words to entire data set. after filtering out words categorized as neutral, we calculate the frequency by first grouping them along sentiment then counting the rows for each of these groups. Finally, we can calculate the percentage by dividing the sum of all the rows in the data set.

sentiment_bing <- tidy_news %>% 
        left_join(get_sentiments("bing"), by = "word") %>%
        filter(!is.na(sentiment)) %>%
        group_by(year, sentiment) %>%
        summarise(n = n()) %>%
        mutate(percent = n / sum(n)) %>%
        ungroup()

sentiment_bing

## # A tibble: 30 x 4
##    year  sentiment     n percent
##    <chr> <chr>     <int>   <dbl>
##  1 2003  negative  26303   0.676
##  2 2003  positive  12604   0.324
##  3 2004  negative  31093   0.685
##  4 2004  positive  14291   0.315
##  5 2005  negative  31705   0.701
##  6 2005  positive  13522   0.299
##  7 2006  negative  28471   0.701
##  8 2006  positive  12123   0.299
##  9 2007  negative  32875   0.710
## 10 2007  positive  13454   0.290
## # ... with 20 more rows
…
We can see that the sentiment changes over time is quite consistent, with fear sentiment already at high level in 2003.

Lets see what are the most words used that are associated with fear:

nrc_fear <- get_sentiments("nrc") %>% 
  filter(sentiment == "fear")

tidy_news %>% 
  inner_join(nrc_fear) %>% 
  count(word, sort = TRUE)

## # A tibble: 1,300 x 2
##    word           n
##    <chr>      <int>
##  1 police     35985
##  2 court      16380
##  3 fire       13910
##  4 crash      11208
##  5 death      11173
##  6 murder      9217
##  7 hospital    8815
##  8 accused     8094
##  9 government  7905
## 10 missing     7582
## # ... with 1,290 more rows
…
# combine all lexicons into one data frame
all_lexicons <- bind_rows(afinn_scores, bing_nrc_scores)
lexicon_cols <- c("AFINN" = "#E41A1C", 
                  "NRC" = "#377EB8", "Bing" = "#4DAF4A")

all_lexicons

## # A tibble: 333 x 5
##    index sentiment lexicon negative positive
##    <dbl>     <dbl> <chr>      <dbl>    <dbl>
##  1     0     -5364 AFINN         NA       NA
##  2     1     -3761 AFINN         NA       NA
##  3     2     -3952 AFINN         NA       NA
##  4     3     -4294 AFINN         NA       NA
##  5     4     -4481 AFINN         NA       NA
##  6     5     -4077 AFINN         NA       NA
##  7     6     -4979 AFINN         NA       NA
##  8     7     -4659 AFINN         NA       NA
##  9     8     -5018 AFINN         NA       NA
## 10     9     -5087 AFINN         NA       NA
## # ... with 323 more rows
…
