Sentiment Analysis on A Million News Headlines | A minimal Hugo website
…
First, let’s import the data

# import data
news <- as.tibble(fread("C:/Users/USER/Documents/abcnews-date-text.csv"))

## 
Read 63.1% of 1093281 rows
Read 91.5% of 1093281 rows
Read 1093281 rows and 2 (of 2) columns from 0.051 GB file in 00:00:04

news

## # A tibble: 1,093,281 x 2
##    publish_date                                      headline_text
##           <int>                                              <chr>
##  1     20030219 aba decides against community broadcasting licence
##  2     20030219     act fire witnesses must be aware of defamation
##  3     20030219     a g calls for infrastructure protection summit
##  4     20030219           air nz staff in aust strike for pay rise
##  5     20030219      air nz strike to affect australian travellers
##  6     20030219                  ambitious olsson wins triple jump
##  7     20030219         antic delighted with record breaking barca
##  8     20030219  aussie qualifier stosur wastes four memphis match
##  9     20030219       aust addresses un security council over iraq
## 10     20030219         australia is locked into war timetable opp
## # ... with 1,093,271 more rows

Term Frequency

One of the common task in text mining is to look at word frequencies. Let’s analyze word frequencies in all of the headlines

news <- news %>%
      # create year column    
      mutate(year = substr(publish_date, 
                start = 1, stop = 4),
                linenumber = row_number())

news

## # A tibble: 1,093,281 x 4
##    publish_date                                      headline_text  year
##           <int>                                              <chr> <chr>
##  1     20030219 aba decides against community broadcasting licence  2003
##  2     20030219     act fire witnesses must be aware of defamation  2003
##  3     20030219     a g calls for infrastructure protection summit  2003
##  4     20030219           air nz staff in aust strike for pay rise  2003
##  5     20030219      air nz strike to affect australian travellers  2003
##  6     20030219                  ambitious olsson wins triple jump  2003
##  7     20030219         antic delighted with record breaking barca  2003
##  8     20030219  aussie qualifier stosur wastes four memphis match  2003
##  9     20030219       aust addresses un security council over iraq  2003
## 10     20030219         australia is locked into war timetable opp  2003
## # ... with 1,093,271 more rows, and 1 more variables: linenumber <int>

we can use unnest_tokens to separate each line into words. The default tokenizing is for words, but other options include characters, sentences, lines, paragraphs, or separation around regex pattern.

tidy_news <- news %>% 
        unnest_tokens(word, headline_text)

tidy_news

## # A tibble: 6,988,120 x 4
##    publish_date  year linenumber         word
##           <int> <chr>      <int>        <chr>
##  1     20030219  2003          1          aba
##  2     20030219  2003          1      decides
##  3     20030219  2003          1      against
##  4     20030219  2003          1    community
##  5     20030219  2003          1 broadcasting
##  6     20030219  2003          1      licence
##  7     20030219  2003          2          act
##  8     20030219  2003          2         fire
##  9     20030219  2003          2    witnesses
## 10     20030219  2003          2         must
## # ... with 6,988,110 more rows
…
We can see here most of the headlines contain the words, “police”, “court”, “council”.

Network of Words

Let’s count the words that occur together in the headlines from 2017. Using pair_count function from widyr package, we can count highest co-occurances pair of words.

headlines_2017 <- tidy_news %>% 
    filter(year == "2017") %>%
    pairwise_count(word, linenumber, sort = TRUE)  
  
headlines_2017

## # A tibble: 792,786 x 3
##       item1    item2     n
##       <chr>    <chr> <dbl>
##  1    trump   donald   476
##  2   donald    trump   476
##  3    korea    north   238
##  4    north    korea   238
##  5 marriage      sex   156
##  6      sex marriage   156
##  7 election       wa   147
##  8       wa election   147
##  9 turnbull  malcolm   138
## 10  malcolm turnbull   138
## # ... with 792,776 more rows
…
Next, we’ll look into sentiment analysis of these words so we can understand what type of sentiment have been used in most of these headlines.

Sentiment Analysis

Now let’s investigate sentiment analysis. When we reads a text, we use our understanding of the emotional intent of words to infer wheter a section of words is positive or negative and also categorized it into emotion like anger or joy. Let’s use bing lexicon from sentiments dataset to categorized our words into positive or negative sentiment.

# create dataframe of words from bing lexicon
library(tidyr)
bing <- sentiments %>%
        filter(lexicon == "bing") %>%
        select(-score)

bing

## # A tibble: 6,788 x 3
##           word sentiment lexicon
##          <chr>     <chr>   <chr>
##  1     2-faced  negative    bing
##  2     2-faces  negative    bing
##  3          a+  positive    bing
##  4    abnormal  negative    bing
##  5     abolish  negative    bing
##  6  abominable  negative    bing
##  7  abominably  negative    bing
##  8   abominate  negative    bing
##  9 abomination  negative    bing
## 10       abort  negative    bing
## # ... with 6,778 more rows
…
Proportions of Positive and Negative Words

Now let’s see the proportions of negative and positive words to entire data set. after filtering out words categorized as neutral, we calculate the frequency by first grouping them along sentiment then counting the rows for each of these groups. Finally, we can calculate the percentage by dividing the sum of all the rows in the data set.

sentiment_bing <- tidy_news %>% 
        left_join(get_sentiments("bing"), by = "word") %>%
        filter(!is.na(sentiment)) %>%
        group_by(year, sentiment) %>%
        summarise(n = n()) %>%
        mutate(percent = n / sum(n)) %>%
        ungroup()

sentiment_bing

## # A tibble: 30 x 4
##     year sentiment     n   percent
##    <chr>     <chr> <int>     <dbl>
##  1  2003  negative 26303 0.6760480
##  2  2003  positive 12604 0.3239520
##  3  2004  negative 31093 0.6851093
##  4  2004  positive 14291 0.3148907
##  5  2005  negative 31705 0.7010193
##  6  2005  positive 13522 0.2989807
##  7  2006  negative 28471 0.7013598
##  8  2006  positive 12123 0.2986402
##  9  2007  negative 32875 0.7095987
## 10  2007  positive 13454 0.2904013
## # ... with 20 more rows
…
We can see that the sentiment changes over time is quite consistent, with fear sentiment already at high level in 2003.

Let’s see what are the most words used that are associated with fear:

nrc_fear <- get_sentiments("nrc") %>% 
  filter(sentiment == "fear")

tidy_news %>% 
  inner_join(nrc_fear) %>% 
  count(word, sort = TRUE)

## # A tibble: 1,297 x 2
##          word     n
##         <chr> <int>
##  1     police 35705
##  2      court 16191
##  3       fire 13819
##  4      crash 11103
##  5      death 11052
##  6     murder  9105
##  7   hospital  8755
##  8    accused  8017
##  9 government  7752
## 10    missing  7514
## # ... with 1,287 more rows
…
# combine all lexicons into one data frame
all_lexicons <- bind_rows(afinn_scores, bing_nrc_scores)
lexicon_cols <- c("AFINN" = "#E41A1C", 
                  "NRC" = "#377EB8", "Bing" = "#4DAF4A")

all_lexicons

## # A tibble: 330 x 5
##    index sentiment lexicon negative positive
##    <dbl>     <dbl>   <chr>    <dbl>    <dbl>
##  1     0     -5364   AFINN       NA       NA
##  2     1     -3761   AFINN       NA       NA
##  3     2     -3952   AFINN       NA       NA
##  4     3     -4294   AFINN       NA       NA
##  5     4     -4481   AFINN       NA       NA
##  6     5     -4077   AFINN       NA       NA
##  7     6     -4979   AFINN       NA       NA
##  8     7     -4659   AFINN       NA       NA
##  9     8     -5018   AFINN       NA       NA
## 10     9     -5087   AFINN       NA       NA
## # ... with 320 more rows
…
